CurV 0gk 1.4V (100%) low and high pass flat stereo mode 1 Ohms.csv

"Record Length",25000,"Points",-0.00297200003,   0.0084375
"Sample Interval",4.00000005e-007,s,-0.00297160003,   0.0083125
"Trigger Point",7430,"Samples",-0.00297120003,     0.00825
"Trigger Time",4.6178917e-008,s,-0.00297080003,     0.00825
"",,,-0.00297040003,   0.0088125
"Horizontal Offset",-0.00297200003,s,-0.00297000003,   0.0084375
,,,-0.00296960003,   0.0084375
,,,-0.00296920003,   0.0086875
,,,-0.00296880003,    0.008125
,,,-0.00296840003,    0.008875
,,,-0.00296800003,    0.008125
,,,-0.00296760003,   0.0084375
,,,-0.00296720003,   0.0080625
,,,-0.00296680003,   0.0084375
,,,-0.00296640003,       0.008
,,,-0.00296600003,  0.00778125
,,,-0.00296560003,       0.008
,,,-0.00296520003,   0.0080625
,,,-0.00296480003,   0.0085625
,,,-0.00296440003,   0.0085625
,,,-0.00296400003,      0.0085
,,,-0.00296360003,      0.0085
,,,-0.00296320003,   0.0079375
,,,-0.00296280003,   0.0079375
,,,-0.00296240003,   0.0081875
,,,-0.00296200003,   0.0081875
,,,-0.00296160003,     0.00825
,,,-0.00296120003,   0.0081875
,,,-0.00296080003,    0.009125
,,,-0.00296040003,   0.0085625
,,,-0.00296000003,   0.0084375
,,,-0.00295960003,    0.008625
,,,-0.00295920003,   0.0085625
,,,-0.00295880003,     0.00825
,,,-0.00295840003,   0.0081875
,,,-0.00295800003,   0.0084375
,,,-0.00295760003,    0.009125
,,,-0.00295720003,   0.0088125
,,,-0.00295680003,   0.0088125
,,,-0.00295640003,  0.00928125
,,,-0.00295600003,   0.0089375
,,,-0.00295560003,   0.0081875
,,,-0.00295520003,   0.0090625
,,,-0.00295480003,    0.008625
,,,-0.00295440003,      0.0085
,,,-0.00295400003,       0.009
,,,-0.00295360003,   0.0084375
,,,-0.00295320003,       0.009
,,,-0.00295280003,     0.00875
,,,-0.00295240003,   0.0081875
,,,-0.00295200003,   0.0081875
,,,-0.00295160003,   0.0083125
,,,-0.00295120003,   0.0080625
,,,-0.00295080003,   0.0084375
,,,-0.00295040003,   0.0079375
,,,-0.00295000003,      0.0085
,,,-0.00294960003,   0.0083125
,,,-0.00294920003,   0.0083125
,,,-0.00294880003,   0.0084375
,,,-0.00294840003,   0.0086875
,,,-0.00294800003,   0.0080625
,,,-0.00294760003,     0.00825
,,,-0.00294720003,   0.0081875
,,,-0.00294680003,   0.0080625
,,,-0.00294640003,    0.008375
,,,-0.00294600003,   0.0088125
,,,-0.00294560003,   0.0081875
,,,-0.00294520003,   0.0081875
,,,-0.00294480003,   0.0084375
,,,-0.00294440003,    0.008625
,,,-0.00294400003,    0.008375
,,,-0.00294360003,   0.0079375
,,,-0.00294320003,   0.0079375
,,,-0.00294280003,  0.00746875
,,,-0.00294240003,       0.008
,,,-0.00294200003,       0.008
,,,-0.00294160003,  0.00746875
,,,-0.00294120003,  0.00740625
,,,-0.00294080003,  0.00778125
,,,-0.00294040003,       0.008
,,,-0.00294000003,   0.0079375
,,,-0.00293960003,  0.00784375
,,,-0.00293920003,    0.008125
,,,-0.00293880003,  0.00759375
,,,-0.00293840003,    0.008125
,,,-0.00293800003,   0.0079375
,,,-0.00293760003,    0.008125
,,,-0.00293720003,    0.008125
,,,-0.00293680003,       0.008
,,,-0.00293640003,       0.008
,,,-0.00293600003,    0.008375
,,,-0.00293560003,     0.00875
,,,-0.00293520003,    0.008875
,,,-0.00293480003,   0.0086875
,,,-0.00293440003,   0.0084375
,,,-0.00293400003,      0.0085
,,,-0.00293360003,   0.0084375
,,,-0.00293320003,     0.00875
,,,-0.00293280003,   0.0089375
,,,-0.00293240003,   0.0086875
,,,-0.00293200003,    0.008875
,,,-0.00293160003,  0.00928125
,,,-0.00293120003,   0.0089375
,,,-0.00293080003,    0.008875
,,,-0.00293040003,    0.008875
,,,-0.00293000003,     0.00825
,,,-0.00292960003,   0.0086875
,,,-0.00292920003,   0.0089375
,,,-0.00292880003,      0.0085
,,,-0.00292840003,    0.008625
,,,-0.00292800003,   0.0086875
,,,-0.00292760003,    0.008875
,,,-0.00292720003,   0.0084375
,,,-0.00292680003,   0.0086875
,,,-0.00292640003,  0.00784375
,,,-0.00292600003,     0.00825
,,,-0.00292560003,   0.0085625
,,,-0.00292520003,   0.0085625
,,,-0.00292480003,   0.0084375
,,,-0.00292440003,    0.008125
,,,-0.00292400003,   0.0079375
,,,-0.00292360003,       0.008
,,,-0.00292320003,   0.0081875
,,,-0.00292280003,   0.0081875
,,,-0.00292240003,    0.008125
,,,-0.00292200003,   0.0079375
,,,-0.00292160003,   0.0084375
,,,-0.00292120003,    0.008375
,,,-0.00292080003,   0.0085625
,,,-0.00292040003,    0.008625
,,,-0.00292000003,    0.008125
,,,-0.00291960003,      0.0085
,,,-0.00291920003,   0.0086875
,,,-0.00291880003,     0.00875
,,,-0.00291840003,     0.00875
,,,-0.00291800003,   0.0085625
,,,-0.00291760003,   0.0083125
,,,-0.00291720003,     0.00875
,,,-0.00291680003,   0.0083125
,,,-0.00291640003,      0.0085
,,,-0.00291600003,     0.00875
,,,-0.00291560003,   0.0089375
,,,-0.00291520003,    0.008625
,,,-0.00291480003,   0.0083125
,,,-0.00291440003,  0.00784375
,,,-0.00291400003,    0.008125
,,,-0.00291360003,     0.00825
,,,-0.00291320003,   0.0083125
,,,-0.00291280003,   0.0084375
,,,-0.00291240003,      0.0085
,,,-0.00291200003,  0.00784375
,,,-0.00291160003,   0.0086875
,,,-0.00291120003,    0.008375
,,,-0.00291080003,    0.008625
,,,-0.00291040003,      0.0085
,,,-0.00291000003,   0.0085625
,,,-0.00290960003,   0.0081875
,,,-0.00290920003,   0.0085625
,,,-0.00290880003,   0.0085625
,,,-0.00290840003,    0.008625
,,,-0.00290800003,    0.008375
,,,-0.00290760003,    0.008375
,,,-0.00290720003,   0.0083125
,,,-0.00290680003,      0.0085
,,,-0.00290640003,   0.0083125
,,,-0.00290600003,   0.0083125
,,,-0.00290560003,      0.0085
,,,-0.00290520003,    0.008375
,,,-0.00290480003,    0.008875
,,,-0.00290440003,   0.0088125
,,,-0.00290400003,   0.0080625
,,,-0.00290360003,      0.0085
,,,-0.00290320003,   0.0085625
,,,-0.00290280003,    0.008625
,,,-0.00290240003,   0.0088125
,,,-0.00290200003,   0.0079375
,,,-0.00290160003,   0.0086875
,,,-0.00290120003,      0.0085
,,,-0.00290080003,    0.008375
,,,-0.00290040003,     0.00875
,,,-0.00290000003,   0.0083125
,,,-0.00289960003,     0.00825
,,,-0.00289920003,   0.0083125
,,,-0.00289880003,   0.0085625
,,,-0.00289840003,       0.008
,,,-0.00289800003,   0.0079375
,,,-0.00289760003,    0.008375
,,,-0.00289720003,  0.00784375
,,,-0.00289680003,   0.0084375
,,,-0.00289640003,   0.0081875
,,,-0.00289600003,   0.0084375
,,,-0.00289560003,     0.00825
,,,-0.00289520003,   0.0081875
,,,-0.00289480003,   0.0084375
,,,-0.00289440003,      0.0085
,,,-0.00289400003,   0.0083125
,,,-0.00289360003,   0.0081875
,,,-0.00289320003,    0.008625
,,,-0.00289280003,   0.0084375
,,,-0.00289240003,      0.0085
,,,-0.00289200003,     0.00825
,,,-0.00289160003,     0.00875
,,,-0.00289120003,    0.009125
,,,-0.00289080003,    0.008125
,,,-0.00289040003,   0.0086875
,,,-0.00289000003,   0.0084375
,,,-0.00288960003,  0.00784375
,,,-0.00288920003,     0.00825
,,,-0.00288880003,   0.0083125
,,,-0.00288840003,     0.00825
,,,-0.00288800003,   0.0086875
,,,-0.00288760003,   0.0086875
,,,-0.00288720003,    0.008625
,,,-0.00288680003,   0.0089375
,,,-0.00288640003,      0.0085
,,,-0.00288600003,   0.0083125
,,,-0.00288560003,     0.00825
,,,-0.00288520003,   0.0086875
,,,-0.00288480003,    0.008125
,,,-0.00288440003,    0.008875
,,,-0.00288400003,    0.008625
,,,-0.00288360003,    0.008625
,,,-0.00288320003,   0.0085625
,,,-0.00288280003,     0.00825
,,,-0.00288240003,   0.0083125
,,,-0.00288200003,   0.0084375
,,,-0.00288160003,   0.0083125
,,,-0.00288120003,   0.0083125
,,,-0.00288080003,    0.008375
,,,-0.00288040003,   0.0088125
,,,-0.00288000003,      0.0085
,,,-0.00287960003,   0.0085625
,,,-0.00287920003,    0.008625
,,,-0.00287880003,    0.008375
,,,-0.00287840003,   0.0081875
,,,-0.00287800003,       0.009
,,,-0.00287760003,   0.0083125
,,,-0.00287720003,    0.008625
,,,-0.00287680003,    0.008625
,,,-0.00287640003,    0.008625
,,,-0.00287600003,    0.008375
,,,-0.00287560003,   0.0083125
,,,-0.00287520003,     0.00875
,,,-0.00287480003,    0.008875
,,,-0.00287440003,     0.00875
,,,-0.00287400003,    0.008875
,,,-0.00287360003,   0.0086875
,,,-0.00287320003,   0.0088125
,,,-0.00287280003,    0.008375
,,,-0.00287240003,   0.0084375
,,,-0.00287200003,   0.0081875
,,,-0.00287160003,    0.008375
,,,-0.00287120003,    0.008625
,,,-0.00287080003,   0.0081875
,,,-0.00287040003,   0.0080625
,,,-0.00287000003,  0.00778125
,,,-0.00286960003,    0.008375
,,,-0.00286920003,    0.008125
,,,-0.00286880003,   0.0084375
,,,-0.00286840003,   0.0081875
,,,-0.00286800003,    0.008125
,,,-0.00286760003,    0.008125
,,,-0.00286720003,    0.008125
,,,-0.00286680003,     0.00825
,,,-0.00286640003,    0.008125
,,,-0.00286600003,   0.0083125
,,,-0.00286560003,   0.0083125
,,,-0.00286520003,      0.0085
,,,-0.00286480003,   0.0083125
,,,-0.00286440003,   0.0083125
,,,-0.00286400003,     0.00825
,,,-0.00286360003,  0.00784375
,,,-0.00286320003,   0.0081875
,,,-0.00286280003,   0.0086875
,,,-0.00286240003,   0.0084375
,,,-0.00286200003,   0.0083125
,,,-0.00286160003,   0.0084375
,,,-0.00286120003,   0.0086875
,,,-0.00286080003,   0.0089375
,,,-0.00286040003,   0.0089375
,,,-0.00286000003,       0.009
,,,-0.00285960003,    0.008875
,,,-0.00285920003,    0.008875
,,,-0.00285880003,   0.0084375
,,,-0.00285840003,   0.0086875
,,,-0.00285800003,   0.0088125
,,,-0.00285760003,   0.0088125
,,,-0.00285720003,       0.009
,,,-0.00285680003,     0.00875
,,,-0.00285640003,   0.0090625
,,,-0.00285600003,     0.00875
,,,-0.00285560003,   0.0085625
,,,-0.00285520003,   0.0086875
,,,-0.00285480003,   0.0086875
,,,-0.00285440003,       0.009
,,,-0.00285400003,     0.00875
,,,-0.00285360003,    0.008875
,,,-0.00285320003,      0.0085
,,,-0.00285280003,   0.0086875
,,,-0.00285240003,    0.008625
,,,-0.00285200003,   0.0090625
,,,-0.00285160003,   0.0088125
,,,-0.00285120003,   0.0090625
,,,-0.00285080003,   0.0088125
,,,-0.00285040003,      0.0085
,,,-0.00285000003,    0.008875
,,,-0.00284960003,   0.0081875
,,,-0.00284920003,    0.008375
,,,-0.00284880003,   0.0086875
,,,-0.00284840003,   0.0084375
,,,-0.00284800003,       0.009
,,,-0.00284760003,    0.008375
,,,-0.00284720003,   0.0084375
,,,-0.00284680003,   0.0086875
,,,-0.00284640003,   0.0083125
,,,-0.00284600003,      0.0085
,,,-0.00284560003,      0.0085
,,,-0.00284520003,    0.008375
,,,-0.00284480003,    0.008375
,,,-0.00284440003,     0.00825
,,,-0.00284400003,       0.008
,,,-0.00284360003,    0.008125
,,,-0.00284320003,    0.008875
,,,-0.00284280003,   0.0080625
,,,-0.00284240003,      0.0085
,,,-0.00284200003,     0.00825
,,,-0.00284160003,       0.008
,,,-0.00284120003,     0.00825
,,,-0.00284080003,   0.0083125
,,,-0.00284040003,   0.0084375
,,,-0.00284000003,     0.00825
,,,-0.00283960003,   0.0079375
,,,-0.00283920003,   0.0086875
,,,-0.00283880003,   0.0086875
,,,-0.00283840003,  0.00784375
,,,-0.00283800003,   0.0081875
,,,-0.00283760003,    0.008375
,,,-0.00283720003,      0.0085
,,,-0.00283680003,     0.00825
,,,-0.00283640003,   0.0086875
,,,-0.00283600003,   0.0081875
,,,-0.00283560003,   0.0083125
,,,-0.00283520003,    0.008875
,,,-0.00283480003,     0.00875
,,,-0.00283440003,   0.0083125
,,,-0.00283400003,   0.0081875
,,,-0.00283360003,    0.008375
,,,-0.00283320003,      0.0085
,,,-0.00283280003,  0.00946875
,,,-0.00283240003,   0.0086875
,,,-0.00283200003,   0.0088125
,,,-0.00283160003,   0.0086875
,,,-0.00283120003,       0.009
,,,-0.00283080003,   0.0084375
,,,-0.00283040003,    0.008375
,,,-0.00283000003,   0.0083125
,,,-0.00282960003,    0.008875
,,,-0.00282920003,       0.008
,,,-0.00282880003,     0.00825
,,,-0.00282840003,    0.008375
,,,-0.00282800003,   0.0084375
,,,-0.00282760003,   0.0081875
,,,-0.00282720003,       0.008
,,,-0.00282680003,    0.008125
,,,-0.00282640003,     0.00825
,,,-0.00282600003,  0.00784375
,,,-0.00282560003,   0.0085625
,,,-0.00282520003,   0.0081875
,,,-0.00282480003,    0.008625
,,,-0.00282440003,    0.008625
,,,-0.00282400003,     0.00875
,,,-0.00282360003,    0.008875
,,,-0.00282320003,    0.009125
,,,-0.00282280003,   0.0089375
,,,-0.00282240003,     0.00875
,,,-0.00282200003,   0.0086875
,,,-0.00282160003,    0.008375
,,,-0.00282120003,    0.008625
,,,-0.00282080003,     0.00875
,,,-0.00282040003,  0.00940625
,,,-0.00282000003,   0.0083125
,,,-0.00281960003,    0.008625
,,,-0.00281920003,      0.0085
,,,-0.00281880003,    0.008625
,,,-0.00281840003,    0.008375
,,,-0.00281800003,   0.0079375
,,,-0.00281760003,   0.0079375
,,,-0.00281720003,   0.0083125
,,,-0.00281680003,       0.008
,,,-0.00281640003,       0.008
,,,-0.00281600003,    0.008125
,,,-0.00281560003,      0.0085
,,,-0.00281520003,       0.008
,,,-0.00281480003,   0.0080625
,,,-0.00281440003,   0.0081875
,,,-0.00281400003,    0.008125
,,,-0.00281360003,    0.008625
,,,-0.00281320003,   0.0085625
,,,-0.00281280003,   0.0085625
,,,-0.00281240003,    0.008375
,,,-0.00281200003,    0.008125
,,,-0.00281160003,    0.008625
,,,-0.00281120003,     0.00825
,,,-0.00281080003,    0.008375
,,,-0.00281040003,  0.00784375
,,,-0.00281000003,  0.00771875
,,,-0.00280960003,   0.0084375
,,,-0.00280920003,      0.0085
,,,-0.00280880003,     0.00825
,,,-0.00280840003,   0.0083125
,,,-0.00280800003,   0.0083125
,,,-0.00280760003,    0.008125
,,,-0.00280720003,     0.00875
,,,-0.00280680003,    0.008625
,,,-0.00280640003,      0.0085
,,,-0.00280600003,      0.0085
,,,-0.00280560003,   0.0084375
,,,-0.00280520003,   0.0083125
,,,-0.00280480003,   0.0083125
,,,-0.00280440003,   0.0083125
,,,-0.00280400003,   0.0086875
,,,-0.00280360003,   0.0083125
,,,-0.00280320003,    0.008375
,,,-0.00280280003,     0.00875
,,,-0.00280240003,    0.008875
,,,-0.00280200003,   0.0086875
,,,-0.00280160003,    0.008875
,,,-0.00280120003,   0.0081875
,,,-0.00280080003,   0.0081875
,,,-0.00280040003,      0.0085
,,,-0.00280000003,      0.0085
,,,-0.00279960003,    0.008125
,,,-0.00279920003,   0.0081875
,,,-0.00279880003,   0.0084375
,,,-0.00279840003,   0.0084375
,,,-0.00279800003,   0.0083125
,,,-0.00279760003,   0.0081875
,,,-0.00279720003,  0.00784375
,,,-0.00279680003,    0.008125
,,,-0.00279640003,   0.0084375
,,,-0.00279600003,   0.0081875
,,,-0.00279560003,    0.008375
,,,-0.00279520003,      0.0085
,,,-0.00279480003,   0.0083125
,,,-0.00279440003,    0.008625
,,,-0.00279400003,    0.008625
,,,-0.00279360003,      0.0085
,,,-0.00279320003,       0.009
,,,-0.00279280003,   0.0086875
,,,-0.00279240003,   0.0079375
,,,-0.00279200003,   0.0085625
,,,-0.00279160003,   0.0083125
,,,-0.00279120003,     0.00875
,,,-0.00279080003,      0.0085
,,,-0.00279040003,   0.0083125
,,,-0.00279000003,    0.008125
,,,-0.00278960003,   0.0084375
,,,-0.00278920003,      0.0085
,,,-0.00278880003,     0.00825
,,,-0.00278840003,   0.0088125
,,,-0.00278800003,    0.008625
,,,-0.00278760003,   0.0085625
,,,-0.00278720003,     0.00825
,,,-0.00278680003,      0.0085
,,,-0.00278640003,    0.008375
,,,-0.00278600003,     0.00825
,,,-0.00278560003,    0.008125
,,,-0.00278520003,   0.0080625
,,,-0.00278480003,    0.008125
,,,-0.00278440003,    0.008125
,,,-0.00278400003,   0.0085625
,,,-0.00278360003,      0.0085
,,,-0.00278320003,    0.008125
,,,-0.00278280003,   0.0083125
,,,-0.00278240003,      0.0085
,,,-0.00278200003,   0.0085625
,,,-0.00278160003,   0.0084375
,,,-0.00278120003,     0.00825
,,,-0.00278080003,   0.0084375
,,,-0.00278040003,    0.008125
,,,-0.00278000003,    0.008625
,,,-0.00277960003,   0.0086875
,,,-0.00277920003,    0.008875
,,,-0.00277880003,   0.0083125
,,,-0.00277840003,      0.0085
,,,-0.00277800003,   0.0089375
,,,-0.00277760003,    0.009125
,,,-0.00277720003,   0.0088125
,,,-0.00277680003,   0.0091875
,,,-0.00277640003,       0.009
,,,-0.00277600003,    0.008875
,,,-0.00277560003,     0.00875
,,,-0.00277520003,   0.0085625
,,,-0.00277480003,   0.0086875
,,,-0.00277440003,      0.0085
,,,-0.00277400003,   0.0083125
,,,-0.00277360003,    0.008625
,,,-0.00277320003,    0.008375
,,,-0.00277280003,     0.00825
,,,-0.00277240003,    0.008375
,,,-0.00277200003,   0.0083125
,,,-0.00277160003,   0.0083125
,,,-0.00277120003,   0.0083125
,,,-0.00277080003,   0.0079375
,,,-0.00277040003,   0.0086875
,,,-0.00277000003,    0.008125
,,,-0.00276960003,  0.00771875
,,,-0.00276920003,    0.008625
,,,-0.00276880003,   0.0084375
,,,-0.00276840003,    0.008375
,,,-0.00276800003,      0.0085
,,,-0.00276760003,    0.008375
,,,-0.00276720003,    0.008125
,,,-0.00276680003,   0.0085625
,,,-0.00276640003,   0.0086875
,,,-0.00276600003,   0.0080625
,,,-0.00276560003,    0.008125
,,,-0.00276520003,    0.008125
,,,-0.00276480003,   0.0084375
,,,-0.00276440003,   0.0083125
,,,-0.00276400003,   0.0083125
,,,-0.00276360003,      0.0085
,,,-0.00276320003,  0.00771875
,,,-0.00276280003,   0.0080625
,,,-0.00276240003,       0.008
,,,-0.00276200003,     0.00825
,,,-0.00276160003,    0.008375
,,,-0.00276120003,    0.008375
,,,-0.00276080003,    0.008375
,,,-0.00276040003,      0.0085
,,,-0.00276000003,   0.0083125
,,,-0.00275960003,     0.00875
,,,-0.00275920003,   0.0085625
,,,-0.00275880003,   0.0083125
,,,-0.00275840003,  0.00778125
,,,-0.00275800003,    0.008125
,,,-0.00275760003,  0.00784375
,,,-0.00275720003,   0.0081875
,,,-0.00275680003,   0.0080625
,,,-0.00275640003,  0.00784375
,,,-0.00275600003,   0.0079375
,,,-0.00275560003,    0.008375
,,,-0.00275520003,  0.00771875
,,,-0.00275480003,      0.0085
,,,-0.00275440003,   0.0084375
,,,-0.00275400003,      0.0085
,,,-0.00275360003,    0.008625
,,,-0.00275320003,   0.0088125
,,,-0.00275280003,   0.0084375
,,,-0.00275240003,   0.0083125
,,,-0.00275200003,     0.00825
,,,-0.00275160003,   0.0088125
,,,-0.00275120003,    0.008625
,,,-0.00275080003,   0.0084375
,,,-0.00275040003,    0.008125
,,,-0.00275000003,    0.008875
,,,-0.00274960003,    0.008625
,,,-0.00274920003,   0.0086875
,,,-0.00274880003,    0.008625
,,,-0.00274840003,   0.0084375
,,,-0.00274800003,    0.008375
,,,-0.00274760003,     0.00825
,,,-0.00274720003,   0.0085625
,,,-0.00274680003,    0.008125
,,,-0.00274640003,   0.0080625
,,,-0.00274600003,  0.00765625
,,,-0.00274560003,   0.0081875
,,,-0.00274520003,    0.008125
,,,-0.00274480003,       0.008
,,,-0.00274440003,  0.00765625
,,,-0.00274400003,    0.008125
,,,-0.00274360003,    0.008125
,,,-0.00274320003,   0.0084375
,,,-0.00274280003,   0.0086875
,,,-0.00274240003,     0.00875
,,,-0.00274200003,   0.0085625
,,,-0.00274160003,    0.008625
,,,-0.00274120003,     0.00825
,,,-0.00274080003,   0.0084375
,,,-0.00274040003,    0.008375
,,,-0.00274000003,   0.0083125
,,,-0.00273960003,   0.0083125
,,,-0.00273920003,      0.0085
,,,-0.00273880003,   0.0081875
,,,-0.00273840003,      0.0085
,,,-0.00273800003,   0.0086875
,,,-0.00273760003,    0.008875
,,,-0.00273720003,    0.008875
,,,-0.00273680003,   0.0088125
,,,-0.00273640003,   0.0084375
,,,-0.00273600003,   0.0083125
,,,-0.00273560003,    0.008375
,,,-0.00273520003,   0.0088125
,,,-0.00273480003,     0.00875
,,,-0.00273440003,     0.00825
,,,-0.00273400003,    0.008375
,,,-0.00273360003,   0.0086875
,,,-0.00273320003,   0.0083125
,,,-0.00273280003,   0.0085625
,,,-0.00273240003,    0.008375
,,,-0.00273200003,   0.0085625
,,,-0.00273160003,   0.0088125
,,,-0.00273120003,   0.0084375
,,,-0.00273080003,   0.0083125
,,,-0.00273040003,       0.008
,,,-0.00273000003,   0.0084375
,,,-0.00272960003,     0.00825
,,,-0.00272920003,     0.00825
,,,-0.00272880003,     0.00875
,,,-0.00272840003,   0.0086875
,,,-0.00272800003,   0.0086875
,,,-0.00272760003,   0.0088125
,,,-0.00272720003,   0.0091875
,,,-0.00272680003,       0.009
,,,-0.00272640003,       0.009
,,,-0.00272600003,    0.008875
,,,-0.00272560003,   0.0086875
,,,-0.00272520003,  0.00928125
,,,-0.00272480003,  0.00953125
,,,-0.00272440003,    0.009125
,,,-0.00272400003,  0.00934375
,,,-0.00272360003,   0.0089375
,,,-0.00272320003,     0.00875
,,,-0.00272280003,   0.0089375
,,,-0.00272240003,  0.00928125
,,,-0.00272200003,     0.00875
,,,-0.00272160003,    0.008875
,,,-0.00272120003,  0.00934375
,,,-0.00272080003,   0.0088125
,,,-0.00272040003,   0.0086875
,,,-0.00272000003,    0.008625
,,,-0.00271960003,   0.0085625
,,,-0.00271920003,    0.008625
,,,-0.00271880003,     0.00825
,,,-0.00271840003,   0.0083125
,,,-0.00271800003,   0.0085625
,,,-0.00271760003,      0.0085
,,,-0.00271720003,   0.0081875
,,,-0.00271680003,   0.0084375
,,,-0.00271640003,     0.00875
