Square pulse wave/CurV 0gk 0.14V (10%) low and high pass flat stereo mode 5 Ohms.csv

"Record Length",50000,"Points",-0.00254200003,-0.0001484375
"Sample Interval",2.00000002e-007,s,-0.00254180003, -0.00010625
"Trigger Point",12710,"Samples",-0.00254160003, -0.00010625
"Trigger Time",2.75589168e-008,s,-0.00254140003, -8.125e-005
"",,,-0.00254120003,-4.84375e-005
"Horizontal Offset",-0.00254200003,s,-0.00254100003,-5.15625e-005
,,,-0.00254080003,-2.96875e-005
,,,-0.00254060003,-4.84375e-005
,,,-0.00254040003,-3.28125e-005
,,,-0.00254020003,   6.25e-006
,,,-0.00254000003,  1.875e-005
,,,-0.00253980003,   6.25e-006
,,,-0.00253960003,-1.71875e-005
,,,-0.00253940003,    2.5e-005
,,,-0.00253920003, -3.125e-006
,,,-0.00253900003,    2.5e-005
,,,-0.00253880003, 2.8125e-005
,,,-0.00253860003, 1.5625e-005
,,,-0.00253840003,-2.96875e-005
,,,-0.00253820003,-7.8125e-006
,,,-0.00253800003,  3.125e-005
,,,-0.00253780003,           0
,,,-0.00253760003,           0
,,,-0.00253740003,    2.5e-005
,,,-0.00253720003,-4.21875e-005
,,,-0.00253700003,-1.09375e-005
,,,-0.00253680003,-6.09375e-005
,,,-0.00253660003,   -7.5e-005
,,,-0.00253640003, -0.00010625
,,,-0.00253620003,-9.0625e-005
,,,-0.00253600003,-7.03125e-005
,,,-0.00253580003,-0.000121875
,,,-0.00253560003,-0.000134375
,,,-0.00253540003,-9.6875e-005
,,,-0.00253520003,-0.000103125
,,,-0.00253500003,-0.0001484375
,,,-0.00253480003,-0.000115625
,,,-0.00253460003,-0.0001421875
,,,-0.00253440003,-0.0001578125
,,,-0.00253420003,   -0.000125
,,,-0.00253400003,  -0.0001125
,,,-0.00253380003,   -0.000125
,,,-0.00253360003,-0.000109375
,,,-0.00253340003,-0.000128125
,,,-0.00253320003,-0.0001515625
,,,-0.00253300003,-0.0001453125
,,,-0.00253280003,-0.0001828125
,,,-0.00253260003,-0.0001484375
,,,-0.00253240003,-0.0001734375
,,,-0.00253220003,-0.0001671875
,,,-0.00253200003,-0.0001578125
,,,-0.00253180003,-0.0001828125
,,,-0.00253160003,-0.0001796875
,,,-0.00253140003,  -0.0002125
,,,-0.00253120003,-0.0001828125
,,,-0.00253100003,-0.0001984375
,,,-0.00253080003,-0.000215625
,,,-0.00253060003,-0.0001953125
,,,-0.00253040003,-0.0001828125
,,,-0.00253020003,-0.0002046875
,,,-0.00253000003,-0.0001734375
,,,-0.00252980003,-0.0001515625
,,,-0.00252960003,-0.0001859375
,,,-0.00252940003,-0.0001546875
,,,-0.00252920003,-0.0001859375
,,,-0.00252900003,-0.0001890625
,,,-0.00252880003,-0.0001515625
,,,-0.00252860003,-0.0001484375
,,,-0.00252840003,-0.0001765625
,,,-0.00252820003,   -0.000125
,,,-0.00252800003, -0.00010625
,,,-0.00252780003,-0.000115625
,,,-0.00252760003,-0.0001734375
,,,-0.00252740003,-0.000115625
,,,-0.00252720003, -0.00013125
,,,-0.00252700003, -0.00010625
,,,-0.00252680003,   -7.5e-005
,,,-0.00252660003,-4.21875e-005
,,,-0.00252640003,-6.09375e-005
,,,-0.00252620003,-4.53125e-005
,,,-0.00252600003,-3.59375e-005
,,,-0.00252580003,-1.09375e-005
,,,-0.00252560003,-2.96875e-005
,,,-0.00252540003,  3.125e-005
,,,-0.00252520003,           0
,,,-0.00252500003,   1.25e-005
,,,-0.00252480003,      5e-005
,,,-0.00252460003,           0
,,,-0.00252440003,   6.25e-006
,,,-0.00252420003,   3.75e-005
,,,-0.00252400003, 4.0625e-005
,,,-0.00252380003,   6.25e-006
,,,-0.00252360003,  3.125e-006
,,,-0.00252340003, 2.8125e-005
,,,-0.00252320003,-1.09375e-005
,,,-0.00252300003,-7.8125e-006
,,,-0.00252280003,-7.8125e-006
,,,-0.00252260003, -3.125e-006
,,,-0.00252240003,-2.03125e-005
,,,-0.00252220003,-1.09375e-005
,,,-0.00252200003,           0
,,,-0.00252180003,-8.4375e-005
,,,-0.00252160003,-6.40625e-005
,,,-0.00252140003,-7.03125e-005
,,,-0.00252120003,  -0.0001125
,,,-0.00252100003,-0.000103125
,,,-0.00252080003,   -0.000125
,,,-0.00252060003,  -0.0001375
,,,-0.00252040003,-0.0001671875
,,,-0.00252020003,-0.0001796875
,,,-0.00252000003,-0.000215625
,,,-0.00251980003,-0.000215625
,,,-0.00251960003, -0.00021875
,,,-0.00251940003,  -0.0002375
,,,-0.00251920003,-0.000265625
,,,-0.00251900003,-0.0001890625
,,,-0.00251880003,-0.0001953125
,,,-0.00251860003, -0.00024375
,,,-0.00251840003,-0.000221875
,,,-0.00251820003,   -0.000225
,,,-0.00251800003,-0.000228125
,,,-0.00251780003,-0.000221875
,,,-0.00251760003,-0.0001703125
,,,-0.00251740003,  -0.0002625
,,,-0.00251720003,-0.0001921875
,,,-0.00251700003,  -0.0002375
,,,-0.00251680003,-0.000209375
,,,-0.00251660003,-0.000209375
,,,-0.00251640003,-0.0001953125
,,,-0.00251620003,-0.0001859375
,,,-0.00251600003,-0.0001734375
,,,-0.00251580003,-0.0002015625
,,,-0.00251560003,-0.0001703125
,,,-0.00251540003,-0.0001859375
,,,-0.00251520003,-0.0001546875
,,,-0.00251500003,  -0.0001375
,,,-0.00251480003,-0.0001515625
,,,-0.00251460003,-0.0001484375
,,,-0.00251440003,-0.0001765625
,,,-0.00251420003,   -0.000125
,,,-0.00251400003,-0.000128125
,,,-0.00251380003,-9.6875e-005
,,,-0.00251360003,-0.000128125
,,,-0.00251340003,-0.000115625
,,,-0.00251320003,   -0.000125
,,,-0.00251300003,   -0.000125
,,,-0.00251280003, -9.375e-005
,,,-0.00251260003, -9.375e-005
,,,-0.00251240003,-8.4375e-005
,,,-0.00251220003,-0.000115625
,,,-0.00251200003,-7.8125e-005
,,,-0.00251180003,-7.8125e-005
,,,-0.00251160003,-9.6875e-005
,,,-0.00251140003,-0.000103125
,,,-0.00251120003,   -7.5e-005
,,,-0.00251100003,-2.96875e-005
,,,-0.00251080003,-2.03125e-005
,,,-0.00251060003,-4.53125e-005
,,,-0.00251040003,-4.53125e-005
,,,-0.00251020003,-6.09375e-005
,,,-0.00251000003,-1.40625e-005
,,,-0.00250980003,   1.25e-005
,,,-0.00250960003,  3.125e-005
,,,-0.00250940003,   6.25e-006
,,,-0.00250920003,-4.53125e-005
,,,-0.00250900003,   6.25e-006
,,,-0.00250880003,-1.71875e-005
,,,-0.00250860003,-3.59375e-005
,,,-0.00250840003,-5.46875e-005
,,,-0.00250820003,-3.59375e-005
,,,-0.00250800003,-3.28125e-005
,,,-0.00250780003,-4.21875e-005
,,,-0.00250760003,-2.96875e-005
,,,-0.00250740003, -8.125e-005
,,,-0.00250720003,-9.6875e-005
,,,-0.00250700003,-7.03125e-005
,,,-0.00250680003, -8.125e-005
,,,-0.00250660003,-0.000109375
,,,-0.00250640003,-0.000128125
,,,-0.00250620003,   -7.5e-005
,,,-0.00250600003,-0.0001484375
,,,-0.00250580003,-0.0001484375
,,,-0.00250560003,-0.0001515625
,,,-0.00250540003,-0.0001453125
,,,-0.00250520003,-0.0001890625
,,,-0.00250500003,-0.0001515625
,,,-0.00250480003,-0.0001859375
,,,-0.00250460003, -0.00023125
,,,-0.00250440003,-0.000234375
,,,-0.00250420003, -0.00021875
,,,-0.00250400003,-0.000265625
,,,-0.00250380003,-0.0002953125
,,,-0.00250360003,-0.000246875
,,,-0.00250340003,-0.0002734375
,,,-0.00250320003,-0.000240625
,,,-0.00250300003, -0.00024375
,,,-0.00250280003,-0.000253125
,,,-0.00250260003, -0.00024375
,,,-0.00250240003,  -0.0002375
,,,-0.00250220003,-0.000228125
,,,-0.00250200003, -0.00021875
,,,-0.00250180003,-0.0001796875
,,,-0.00250160003,-0.0001578125
,,,-0.00250140003,-0.0001671875
,,,-0.00250120003,-0.000134375
,,,-0.00250100003,-0.0001484375
,,,-0.00250080003,-0.0001421875
,,,-0.00250060003,-0.0001421875
,,,-0.00250040003, -0.00010625
,,,-0.00250020003,-8.4375e-005
,,,-0.00250000003,-6.09375e-005
,,,-0.00249980003,-5.78125e-005
,,,-0.00249960003, -8.125e-005
,,,-0.00249940003,-4.84375e-005
,,,-0.00249920003,-2.03125e-005
,,,-0.00249900003,-5.15625e-005
,,,-0.00249880003,-4.21875e-005
,,,-0.00249860003,-4.21875e-005
,,,-0.00249840003,-4.21875e-005
,,,-0.00249820003,-3.90625e-005
,,,-0.00249800003,  3.125e-006
,,,-0.00249780003,-1.09375e-005
,,,-0.00249760003,           0
,,,-0.00249740003, 2.1875e-005
,,,-0.00249720003,-5.15625e-005
,,,-0.00249700003,   6.25e-006
,,,-0.00249680003,-1.09375e-005
,,,-0.00249660003,-1.09375e-005
,,,-0.00249640003,-4.21875e-005
,,,-0.00249620003,-5.46875e-005
,,,-0.00249600003,-4.21875e-005
,,,-0.00249580003,-6.71875e-005
,,,-0.00249560003,-5.46875e-005
,,,-0.00249540003,   -7.5e-005
,,,-0.00249520003,-6.40625e-005
,,,-0.00249500003,-2.96875e-005
,,,-0.00249480003,   -7.5e-005
,,,-0.00249460003,-5.46875e-005
,,,-0.00249440003,-4.84375e-005
,,,-0.00249420003,-5.46875e-005
,,,-0.00249400003,-7.03125e-005
,,,-0.00249380003,-5.46875e-005
,,,-0.00249360003,-6.09375e-005
,,,-0.00249340003,-7.03125e-005
,,,-0.00249320003,  -8.75e-005
,,,-0.00249300003,-4.53125e-005
,,,-0.00249280003,-0.000115625
,,,-0.00249260003,   -7.5e-005
,,,-0.00249240003,-0.0001453125
,,,-0.00249220003,   -0.000125
,,,-0.00249200003, -0.00011875
,,,-0.00249180003,  -0.0001375
,,,-0.00249160003,-0.0001703125
,,,-0.00249140003,-0.0001609375
,,,-0.00249120003,-0.0001765625
,,,-0.00249100003,-0.0001828125
,,,-0.00249080003,-0.0001765625
,,,-0.00249060003,-0.0001859375
,,,-0.00249040003,-0.0001828125
,,,-0.00249020003,-0.0001484375
,,,-0.00249000003,-0.0001953125
,,,-0.00248980003,-0.0001828125
,,,-0.00248960003,-0.000215625
,,,-0.00248940003,-0.000209375
,,,-0.00248920003,-0.0002015625
,,,-0.00248900003,-0.000234375
,,,-0.00248880003,-0.000253125
,,,-0.00248860003,-0.000234375
,,,-0.00248840003, -0.00023125
,,,-0.00248820003,-0.0002046875
,,,-0.00248800003,-0.000259375
,,,-0.00248780003,    -0.00025
,,,-0.00248760003, -0.00024375
,,,-0.00248740003, -0.00023125
,,,-0.00248720003,-0.0002015625
,,,-0.00248700003,-0.0001765625
,,,-0.00248680003,-0.0001703125
,,,-0.00248660003,-0.0001953125
,,,-0.00248640003,-0.0001421875
,,,-0.00248620003, -0.00010625
,,,-0.00248600003,  -8.75e-005
,,,-0.00248580003,-5.78125e-005
,,,-0.00248560003,-7.03125e-005
,,,-0.00248540003,-2.65625e-005
,,,-0.00248520003,-7.8125e-006
,,,-0.00248500003,-3.28125e-005
,,,-0.00248480003,-3.90625e-005
,,,-0.00248460003,           0
,,,-0.00248440003, 3.4375e-005
,,,-0.00248420003, 2.1875e-005
,,,-0.00248400003,-2.03125e-005
,,,-0.00248380003, 2.8125e-005
,,,-0.00248360003, 1.5625e-005
,,,-0.00248340003,   1.25e-005
,,,-0.00248320003, 1.5625e-005
,,,-0.00248300003,   6.25e-006
,,,-0.00248280003, 2.8125e-005
,,,-0.00248260003,   1.25e-005
,,,-0.00248240003,   1.25e-005
,,,-0.00248220003,  3.125e-006
,,,-0.00248200003, 4.0625e-005
,,,-0.00248180003,-7.8125e-006
,,,-0.00248160003, 1.5625e-005
,,,-0.00248140003,-4.84375e-005
,,,-0.00248120003,-4.53125e-005
,,,-0.00248100003,-3.59375e-005
,,,-0.00248080003, -3.125e-006
,,,-0.00248060003,-5.15625e-005
,,,-0.00248040003,-0.000103125
,,,-0.00248020003,-7.8125e-005
,,,-0.00248000003,  -0.0001375
,,,-0.00247980003,-0.0001421875
,,,-0.00247960003,-0.0001421875
,,,-0.00247940003,-0.0001453125
,,,-0.00247920003,-0.0001703125
,,,-0.00247900003,-0.0001671875
,,,-0.00247880003,-0.0001453125
,,,-0.00247860003,-0.0002015625
,,,-0.00247840003,-0.0001703125
,,,-0.00247820003,-0.0001578125
,,,-0.00247800003,-0.0001640625
,,,-0.00247780003,-0.0001671875
,,,-0.00247760003,-0.0001640625
,,,-0.00247740003,-0.0001953125
,,,-0.00247720003,-0.0001734375
,,,-0.00247700003,-0.000228125
,,,-0.00247680003,-0.0001734375
,,,-0.00247660003,-0.0001953125
,,,-0.00247640003,-0.0001984375
,,,-0.00247620003,   -0.000225
,,,-0.00247600003,  -0.0002125
,,,-0.00247580003, -0.00021875
,,,-0.00247560003,-0.000221875
,,,-0.00247540003,-0.0001828125
,,,-0.00247520003,-0.000221875
,,,-0.00247500003,  -0.0002125
,,,-0.00247480003,-0.0001796875
,,,-0.00247460003,-0.0001890625
,,,-0.00247440003,-0.0002015625
,,,-0.00247420003,-0.0001828125
,,,-0.00247400003,-0.0001765625
,,,-0.00247380003,-0.0001796875
,,,-0.00247360003,-0.0001703125
,,,-0.00247340003,-0.0001671875
,,,-0.00247320003,-0.0001546875
,,,-0.00247300003,-0.0001515625
,,,-0.00247280003,-0.0001421875
,,,-0.00247260003,-0.0001734375
,,,-0.00247240003,-0.0001828125
,,,-0.00247220003,-0.0001515625
,,,-0.00247200003, -0.00013125
,,,-0.00247180003,  -8.75e-005
,,,-0.00247160003,-9.0625e-005
,,,-0.00247140003,-0.0001453125
,,,-0.00247120003, -0.00013125
,,,-0.00247100003,  -0.0001125
,,,-0.00247080003,   -7.5e-005
,,,-0.00247060003,-6.71875e-005
,,,-0.00247040003,-4.53125e-005
,,,-0.00247020003,-3.28125e-005
,,,-0.00247000003,  3.125e-006
,,,-0.00246980003,-3.90625e-005
,,,-0.00246960003, -3.125e-006
,,,-0.00246940003, 3.4375e-005
,,,-0.00246920003, 2.1875e-005
,,,-0.00246900003, 2.8125e-005
,,,-0.00246880003,  4.375e-005
,,,-0.00246860003,  3.125e-006
,,,-0.00246840003,           0
,,,-0.00246820003,      5e-005
,,,-0.00246800003,           0
,,,-0.00246780003, 2.1875e-005
,,,-0.00246760003,   1.25e-005
,,,-0.00246740003, -3.125e-006
,,,-0.00246720003,   6.25e-006
,,,-0.00246700003,-1.40625e-005
,,,-0.00246680003,-4.53125e-005
,,,-0.00246660003,-2.65625e-005
,,,-0.00246640003,-4.84375e-005
,,,-0.00246620003,-4.21875e-005
,,,-0.00246600003,-3.90625e-005
,,,-0.00246580003,-7.8125e-005
,,,-0.00246560003,-0.000115625
,,,-0.00246540003,-0.000115625
,,,-0.00246520003,-9.6875e-005
,,,-0.00246500003,-0.000128125
,,,-0.00246480003,-0.0001484375
,,,-0.00246460003,-0.0001515625
,,,-0.00246440003,-0.0001921875
,,,-0.00246420003,  -0.0002625
,,,-0.00246400003, -0.00021875
,,,-0.00246380003,  -0.0002125
,,,-0.00246360003,-0.000228125
,,,-0.00246340003,   -0.000225
,,,-0.00246320003,-0.0002734375
,,,-0.00246300003,-0.000259375
,,,-0.00246280003,    -0.00025
,,,-0.00246260003,-0.000215625
,,,-0.00246240003,   -0.000225
,,,-0.00246220003,-0.000234375
,,,-0.00246200003,-0.000234375
,,,-0.00246180003,-0.0001953125
,,,-0.00246160003,-0.0001765625
,,,-0.00246140003,-0.000209375
,,,-0.00246120003, -0.00023125
,,,-0.00246100003,-0.000209375
,,,-0.00246080003,-0.0001859375
,,,-0.00246060003,-0.0001859375
,,,-0.00246040003,-0.0001953125
,,,-0.00246020003,-0.0001640625
,,,-0.00246000003, -0.00011875
,,,-0.00245980003,   -0.000125
,,,-0.00245960003,-0.000121875
,,,-0.00245940003,  -0.0001375
,,,-0.00245920003,-0.000134375
,,,-0.00245900003, -0.00011875
,,,-0.00245880003,-0.000109375
,,,-0.00245860003,-0.000109375
,,,-0.00245840003,-0.000109375
,,,-0.00245820003,-9.0625e-005
,,,-0.00245800003,-5.15625e-005
,,,-0.00245780003,-4.84375e-005
,,,-0.00245760003,-4.21875e-005
,,,-0.00245740003,  -8.75e-005
,,,-0.00245720003,-6.40625e-005
,,,-0.00245700003,-3.90625e-005
,,,-0.00245680003,  -8.75e-005
,,,-0.00245660003,-6.40625e-005
,,,-0.00245640003,-7.8125e-005
,,,-0.00245620003,   -7.5e-005
,,,-0.00245600003,-5.15625e-005
,,,-0.00245580003,-7.03125e-005
,,,-0.00245560003,     -0.0001
,,,-0.00245540003,-2.34375e-005
,,,-0.00245520003,-4.21875e-005
,,,-0.00245500003,   -7.5e-005
,,,-0.00245480003,-4.84375e-005
,,,-0.00245460003,-7.03125e-005
,,,-0.00245440003,-1.71875e-005
,,,-0.00245420003,-2.96875e-005
,,,-0.00245400003,-2.96875e-005
,,,-0.00245380003,-1.71875e-005
,,,-0.00245360003,   6.25e-006
,,,-0.00245340003, 1.5625e-005
,,,-0.00245320003,-2.34375e-005
,,,-0.00245300003,  3.125e-006
,,,-0.00245280003,-4.21875e-005
,,,-0.00245260003,-4.21875e-005
,,,-0.00245240003,-2.34375e-005
,,,-0.00245220003,-1.71875e-005
,,,-0.00245200003,-1.40625e-005
,,,-0.00245180003,-6.40625e-005
,,,-0.00245160003,-4.53125e-005
,,,-0.00245140003,-6.09375e-005
,,,-0.00245120003, -9.375e-005
,,,-0.00245100003,-9.6875e-005
,,,-0.00245080003,-0.000109375
,,,-0.00245060003,-0.0001640625
,,,-0.00245040003,-0.000134375
,,,-0.00245020003,-0.0001609375
,,,-0.00245000003,-0.0001859375
,,,-0.00244980003,-0.0002015625
,,,-0.00244960003,-0.0001578125
,,,-0.00244940003,-0.0001828125
,,,-0.00244920003,-0.0001859375
,,,-0.00244900003,-0.000259375
,,,-0.00244880003,  -0.0002375
,,,-0.00244860003,-0.0002734375
,,,-0.00244840003,    -0.00025
,,,-0.00244820003,-0.0002796875
,,,-0.00244800003, -0.00024375
,,,-0.00244780003,-0.0002921875
,,,-0.00244760003,-0.0002796875
,,,-0.00244740003,-0.0002859375
,,,-0.00244720003,-0.000259375
,,,-0.00244700003,-0.0002734375
,,,-0.00244680003, -0.00021875
,,,-0.00244660003,-0.000209375
,,,-0.00244640003,  -0.0002125
,,,-0.00244620003,-0.0001671875
,,,-0.00244600003,-0.0001515625
,,,-0.00244580003,-0.0001578125
,,,-0.00244560003,-0.0001453125
,,,-0.00244540003,   -0.000125
,,,-0.00244520003,-9.6875e-005
,,,-0.00244500003,  -0.0001125
,,,-0.00244480003,-6.71875e-005
,,,-0.00244460003,-7.8125e-005
,,,-0.00244440003,-7.8125e-005
,,,-0.00244420003,-2.03125e-005
,,,-0.00244400003,-4.21875e-005
,,,-0.00244380003, 1.5625e-005
,,,-0.00244360003,-6.09375e-005
,,,-0.00244340003,-2.34375e-005
,,,-0.00244320003,-6.40625e-005
,,,-0.00244300003,-1.09375e-005
,,,-0.00244280003,  3.125e-006
,,,-0.00244260003,-1.09375e-005
,,,-0.00244240003,   6.25e-006
,,,-0.00244220003,  3.125e-006
,,,-0.00244200003, -3.125e-006
,,,-0.00244180003,   6.25e-006
,,,-0.00244160003,  3.125e-005
,,,-0.00244140003,  1.875e-005
,,,-0.00244120003,-4.21875e-005
,,,-0.00244100003,-4.53125e-005
,,,-0.00244080003,-1.40625e-005
,,,-0.00244060003,-2.03125e-005
,,,-0.00244040003,-4.53125e-005
,,,-0.00244020003,-5.15625e-005
,,,-0.00244000003,-3.90625e-005
,,,-0.00243980003,-9.0625e-005
,,,-0.00243960003,-9.6875e-005
,,,-0.00243940003,     -0.0001
,,,-0.00243920003,-5.78125e-005
,,,-0.00243900003,-6.40625e-005
,,,-0.00243880003,-7.03125e-005
,,,-0.00243860003,-7.8125e-005
,,,-0.00243840003,-0.000109375
,,,-0.00243820003,-9.6875e-005
,,,-0.00243800003, -8.125e-005
,,,-0.00243780003,-9.0625e-005
,,,-0.00243760003,-0.000121875
,,,-0.00243740003, -8.125e-005
,,,-0.00243720003, -8.125e-005
,,,-0.00243700003, -8.125e-005
,,,-0.00243680003,-0.000103125
,,,-0.00243660003,-0.000121875
,,,-0.00243640003,-0.000134375
,,,-0.00243620003, -0.00013125
,,,-0.00243600003,   -0.000125
,,,-0.00243580003,-0.0001734375
,,,-0.00243560003,-0.0001640625
,,,-0.00243540003,-0.0001578125
,,,-0.00243520003,-0.0001546875
,,,-0.00243500003,-0.0001890625
,,,-0.00243480003,-0.0001796875
,,,-0.00243460003,-0.0001921875
,,,-0.00243440003,-0.0001953125
,,,-0.00243420003,-0.0002015625
,,,-0.00243400003,-0.0002046875
,,,-0.00243380003,   -0.000225
,,,-0.00243360003,-0.000240625
,,,-0.00243340003,-0.000240625
,,,-0.00243320003,-0.000240625
,,,-0.00243300003,-0.0001796875
,,,-0.00243280003,  -0.0002125
,,,-0.00243260003,  -0.0002375
,,,-0.00243240003,-0.000246875
,,,-0.00243220003,-0.000209375
,,,-0.00243200003, -0.00024375
,,,-0.00243180003,-0.0002734375
,,,-0.00243160003,-0.000209375
,,,-0.00243140003, -0.00021875
,,,-0.00243120003,-0.0001765625
,,,-0.00243100003,   -0.000125
,,,-0.00243080003,-0.0001515625
,,,-0.00243060003,-0.000128125
,,,-0.00243040003,-0.000121875
,,,-0.00243020003, -0.00010625
,,,-0.00243000003,   -7.5e-005
,,,-0.00242980003,-5.46875e-005
,,,-0.00242960003,-6.09375e-005
,,,-0.00242940003,-2.65625e-005
,,,-0.00242920003,  1.875e-005
,,,-0.00242900003,  9.375e-006
,,,-0.00242880003, 2.1875e-005
,,,-0.00242860003,-1.71875e-005
,,,-0.00242840003,  1.875e-005
,,,-0.00242820003,      5e-005
,,,-0.00242800003,      5e-005
,,,-0.00242780003,6.71875e-005
,,,-0.00242760003,  4.375e-005
,,,-0.00242740003,  4.375e-005
,,,-0.00242720003,    2.5e-005
,,,-0.00242700003,    2.5e-005
,,,-0.00242680003,  9.375e-006
,,,-0.00242660003, -3.125e-006
,,,-0.00242640003,   1.25e-005
,,,-0.00242620003,  3.125e-005
,,,-0.00242600003,  9.375e-006
,,,-0.00242580003,-1.40625e-005
,,,-0.00242560003, -3.125e-006
,,,-0.00242540003,  3.125e-006
,,,-0.00242520003,-4.21875e-005
,,,-0.00242500003,-3.59375e-005
,,,-0.00242480003,-5.15625e-005
,,,-0.00242460003,  -8.75e-005
,,,-0.00242440003, -9.375e-005
,,,-0.00242420003,-0.000109375
,,,-0.00242400003,-0.000134375
,,,-0.00242380003,  -0.0001375
,,,-0.00242360003,-0.0001640625
,,,-0.00242340003,-0.000128125
,,,-0.00242320003,-0.0001734375
,,,-0.00242300003,-0.0001578125
,,,-0.00242280003,-0.0001671875
,,,-0.00242260003,-0.0001796875
,,,-0.00242240003,-0.0001921875
,,,-0.00242220003,  -0.0001375
,,,-0.00242200003,-0.0001671875
,,,-0.00242180003,-0.0001421875
,,,-0.00242160003,-0.0001484375
,,,-0.00242140003,-0.0001796875
,,,-0.00242120003,-0.0001609375
,,,-0.00242100003,-0.0001828125
,,,-0.00242080003,-0.0001453125
,,,-0.00242060003,-0.0001859375
,,,-0.00242040003,-0.0001796875
,,,-0.00242020003,-0.0001578125
,,,-0.00242000003,-0.0001765625
,,,-0.00241980003,-0.0001984375
,,,-0.00241960003,-0.0001578125
,,,-0.00241940003,-0.0001796875
,,,-0.00241920003,-0.0001921875
,,,-0.00241900003,-0.0001859375
,,,-0.00241880003,-0.0001828125
,,,-0.00241860003,  -0.0001375
,,,-0.00241840003,-0.0001640625
,,,-0.00241820003, -0.00011875
,,,-0.00241800003,-0.0001453125
,,,-0.00241780003,-0.0001484375
,,,-0.00241760003,-0.0001734375
,,,-0.00241740003,-0.000121875
,,,-0.00241720003, -0.00011875
,,,-0.00241700003,  -0.0001125
,,,-0.00241680003,-0.000115625
,,,-0.00241660003,-0.000121875
,,,-0.00241640003,  -0.0001375
